Text mining, sentiment analysis, and visualization
…
ipcc_tokens <- ipcc_df %>% 
  unnest_tokens(word, text_full)

# See how this differs from `ipcc_df`
# Each word has its own row!

Lets count the words!

ipcc_wc <- ipcc_tokens %>% 
  count(word) %>% 
  arrange(-n)
ipcc_wc

## # A tibble: 2,413 x 2
##    word           n
##    <chr>      <int>
##  1 and          616
##  2 the          505
##  3 of           476
##  4 to           407
##  5 in           352
##  6 c            283
##  7 global       223
##  8 confidence   213
##  9 warming      188
## 10 for          174
## # ... with 2,403 more rows
…
bing from Bing Liu and collaborators, and

nrc from Saif Mohammad and Peter Turney

All three of these lexicons are based on unigrams, i.e., single words. These lexicons contain many English words and the words are assigned scores for positive/negative sentiment, and also possibly emotions like joy, anger, sadness, and so forth. The AFINN lexicon assigns words with a score that runs between -5 and 5, with negative scores indicating negative sentiment and positive scores indicating positive sentiment. The bing lexicon categorizes words in a binary fashion into positive and negative categories. The nrc lexicon categorizes words in a binary fashion (yes/no) into categories of positive, negative, anger, anticipation, disgust, fear, joy, sadness, surprise, and trust. All of this information is tabulated in the sentiments dataset, and tidytext provides a function get_sentiments() to get specific sentiment lexicons without the columns that are not used in that lexicon."

Lets explore the sentiment lexicons. bing is included, other lexicons (afinn, nrc, loughran) youll be prompted to download.

WARNING: These collections include very offensive words. I urge you to not look at them in class.

afinn: Words ranked from -5 (very negative) to +5 (very positive)

get_sentiments(lexicon = "afinn")

## # A tibble: 2,477 x 2
##    word       value
##    <chr>      <dbl>
##  1 abandon       -2
##  2 abandoned     -2
##  3 abandons      -2
##  4 abducted      -2
##  5 abduction     -2
##  6 abductions    -2
##  7 abhor         -3
##  8 abhorred      -3
##  9 abhorrent     -3
## 10 abhors        -3
## # ... with 2,467 more rows

# Note: may be prompted to download (yes)

# Let's look at the pretty positive words:
afinn_pos <- get_sentiments("afinn") %>% 
  filter(value %in% c(3,4,5))

# Do not look at negative words in class. 
afinn_pos

## # A tibble: 222 x 2
##    word         value
##    <chr>        <dbl>
##  1 admire           3
##  2 admired          3
##  3 admires          3
##  4 admiring         3
##  5 adorable         3
##  6 adore            3
##  7 adored           3
##  8 adores           3
##  9 affection        3
## 10 affectionate     3
## # ... with 212 more rows

bing: binary, positive or negative

get_sentiments(lexicon = "bing")

## # A tibble: 6,786 x 2
##    word        sentiment
##    <chr>       <chr>    
##  1 2-faces     negative 
##  2 abnormal    negative 
##  3 abolish     negative 
##  4 abominable  negative 
##  5 abominably  negative 
##  6 abominate   negative 
##  7 abomination negative 
##  8 abort       negative 
##  9 aborted     negative 
## 10 aborts      negative 
## # ... with 6,776 more rows

nrc:https://saifmohammad.com/WebPages/NRC-Emotion-Lexicon.htm Includes bins for 8 emotions (anger, anticipation, disgust, fear, joy, sadness, surprise, trust) and positive / negative.

Citation for NRC lexicon: Crowdsourcing a Word-Emotion Association Lexicon, Saif Mohammad and Peter Turney, Computational Intelligence, 29 (3), 436-465, 2013.

Now nrc:

get_sentiments(lexicon = "nrc")

## # A tibble: 13,901 x 2
##    word        sentiment
##    <chr>       <chr>    
##  1 abacus      trust    
##  2 abandon     fear     
##  3 abandon     negative 
##  4 abandon     sadness  
##  5 abandoned   anger    
##  6 abandoned   fear     
##  7 abandoned   negative 
##  8 abandoned   sadness  
##  9 abandonment anger    
## 10 abandonment fear     
## # ... with 13,891 more rows
…
